/********************************************
 * PATHPLANNING
 ********************************************/

//! @brief Interface for the sampling a configuration.
class QSampler
{
public:
    /**
     * @brief Sample a configuration.
     *
     * If sampling fails, the sampler may return the empty configuration. If
     * empty() is true then the sampler has no more configurations.
     * Otherwise sample() may (or may not) succeed if called a second time.
     */
    Q sample();

    /**
     * @brief True if the sampler is known to contain no more
     * configurations.
     */
    bool empty() const;

    /**
     * @brief Destructor
     */
    virtual ~QSampler();

    /**
     * @brief Empty sampler.
     */
	static rw::core::Ptr<QSampler> makeEmpty();

    /**
     * @brief Sampler that always returns the same configuration.
     *
     * The sampler is considered never empty (empty() always returns false).
     */
	static rw::core::Ptr<QSampler> makeFixed(const Q& q);

    /**
     * @brief Sampler that always returns a single configuration.
     *
     * The sample() returns \b q the first time the method is called and the
     * empty configuration otherwise. empty() returns true after the first
     * call of sample().
     */
	static rw::core::Ptr<QSampler> makeSingle(const Q& q);

    /**
     * @brief Sampler for the values of a finite sequence.
     *
     * sample() returns each of the values of \b qs in order. When all of
     * these samples have been returned, empty() returns true and sample()
     * returns the empty configuration.
     */
	static rw::core::Ptr<QSampler> makeFinite(const std::vector<Q>& qs);

    /**
     * @brief A sampler to that returns only the first \b cnt samples from
     * another sampler.
     *
     * The sampler is considered empty as soon as \b sampler is empty or the
     * sampler has been called \b cnt times or more.
     */
	static rw::core::Ptr<QSampler> makeFinite(rw::core::Ptr<QSampler> sampler, int cnt);

    /**
     * @brief Uniform random sampling for a box of the configuration space.
     */
	//static rw::core::Ptr<QSampler> makeUniform(const Device::QBox& bounds);

    /**
     * @brief Uniform random sampling for a device.
     */
	static rw::core::Ptr<QSampler> makeUniform(
        const Device& device);

    /**
     * @brief Uniform random sampling for a device.
     */
	static rw::core::Ptr<QSampler> makeUniform(rw::core::Ptr<const Device> device);

    /**
     * @brief Map a sampler of standard configurations into a sampler of
     * normalized configurations.
     */
	//static rw::core::Ptr<QSampler> makeNormalized(rw::core::Ptr<QSampler> sampler, const QNormalizer& normalizer);

    /**
     * @brief A sampler of IK solutions for a specific target.
     *
     * @param sampler [in] Sampler of IK solutions for \b target.
     * @param target [in] Target for IK solver.
     */
	//static rw::core::Ptr<QSampler> make(rw::core::Ptr<QIKSampler> sampler, const rw::math::Transform3D<double>& target);

    /**
     * @brief A sampler filtered by a constraint.
     *
     * For each call of sample() up to \b maxAttempts configurations are
     * extracted from \b sampler and checked by \b constraint. The first
     * sample that satisfies the constraint is returned; if no such were
     * found the empty configuration is returned.
     *
     * If \b maxAttempts is negative (this is the default), then \b sampler
     * is sampled forever until either the \b sampler is empty or a
     * configuration satisfying \b constraint is found.
     */
	static rw::core::Ptr<QSampler> makeConstrained(
		rw::core::Ptr<QSampler> sampler,
		rw::core::Ptr<const QConstraint> constraint,
        int maxAttempts = -1);

    /**
     * @brief Sampler of direction vectors for a box shaped configuration
     * space.
     *
     * Each random direction vector is found by sampling a configuration
     * uniformly at random from \b bounds, and returning the vector from the
     * center of the box to the configuration. The returned direction vector
     * can therefore be of length zero.
     */
    //static
	//	rw::core::Ptr<QSampler> makeBoxDirectionSampler(
    //    const Device::QBox& bounds);

protected:
    /**
     * @brief Constructor
     */
    QSampler();

    /**
     * @brief Subclass implementation of the sample() method.
     */
    virtual Q doSample() = 0;

    /**
     * @brief Subclass implementation of the empty() method.
     *
     * By default the sampler is assumed to be sampling an infinite set of
     * configurations. IOW. the function returns false by default.
     */
    virtual bool doEmpty() const;

private:
    QSampler(const QSampler&);
    QSampler& operator=(const QSampler&);
};
//! @brief smart pointer type to this class
%template (QSamplerPtr) rw::core::Ptr<QSampler>;
//! @brief smart pointer type to this const class
%template (QSamplerCPtr) rw::core::Ptr<const QSampler>;

OWNEDPTR(QSampler)

class PlannerConstraint
{
public:
    PlannerConstraint();

    //PlannerConstraint(QConstraint::Ptr constraint, QEdgeConstraint::Ptr edge);

    bool inCollision(const Q& q);

    bool inCollision(const Q& q1, const Q& q2);

    QConstraint& getQConstraint() const { return *_constraint; }

    //QEdgeConstraint& getQEdgeConstraint() const { return *_edge; }

    const rw::core::Ptr<QConstraint>& getQConstraintPtr();

    //const QEdgeConstraint::Ptr& getQEdgeConstraintPtr() const { return _edge; }

    //static PlannerConstraint make(QConstraint::Ptr constraint, QEdgeConstraint::Ptr edge);

    static PlannerConstraint make(rw::core::Ptr<CollisionDetector> detector,
                                  rw::core::Ptr<const Device> device,
                                  const State& state);

    static PlannerConstraint make(rw::core::Ptr<CollisionStrategy> strategy,
                                  rw::core::Ptr<WorkCell> workcell,
                                  rw::core::Ptr<const Device> device,
                                  const State& state);

    /*
    static PlannerConstraint make(rw::proximity::CollisionStrategy::Ptr strategy,
        const rw::proximity::CollisionSetup& setup,
        rw::core::Ptr<WorkCell> workcell,
        rw::core::Ptr<Device> device,
        const State& state);
     */
};

%template (PlannerConstraintPtr) rw::core::Ptr<PlannerConstraint>;
OWNEDPTR(PlannerConstraint);

%nodefaultctor StopCriteria;
class StopCriteria
 {
#if defined(SWIGJAVA)
%apply bool[] {bool *};
#endif
 
 public:
     bool stop() const;
     rw::core::Ptr<StopCriteria> instance() const;
     virtual ~StopCriteria();
     static rw::core::Ptr<StopCriteria> stopAfter(double time);
     static rw::core::Ptr<StopCriteria> stopNever();
     static rw::core::Ptr<StopCriteria> stopNow();
     static rw::core::Ptr<StopCriteria> stopByFlag(bool* stop);
     //static rw::core::Ptr<StopCriteria> stopByFun(boost::function<bool ()> fun);
     static rw::core::Ptr<StopCriteria> stopCnt(int cnt);
     static rw::core::Ptr<StopCriteria> stopEither(
         const std::vector<rw::core::Ptr<StopCriteria> >& criteria);

     static rw::core::Ptr<StopCriteria> stopEither(
         const rw::core::Ptr<StopCriteria>& a,
         const rw::core::Ptr<StopCriteria>& b);
};

%template (StopCriteriaPtr) rw::core::Ptr<StopCriteria>;
%template (StopCriteriaPtrVector) std::vector<rw::core::Ptr<StopCriteria> >;

%nodefaultctor PathPlanner;
template <class From, class To, class PATH = rw::trajectory::Path<From> >
class PathPlanner
{
public:

    bool query(const From& from, To& to, PATH& path, const StopCriteria& stop);

    bool query(const From& from, To& to, PATH& path, double time);

    bool query(const From& from, To& to, PATH& path);

    PropertyMap& getProperties();

};
%nodefaultctor PathPlannerQQ;
%template (PathPlannerQQ) PathPlanner<Q,const Q>;
%nodefaultctor PathPlannerQQSampler;
%template (PathPlannerQQSampler) PathPlanner<Q, QSampler>;

/**
 * @brief Normalization of configurations.
 *
 * QNormalizer linearly maps configurations of a rectangular configuration
 * space into a square configuration space with lower corner (0, 0, ..., 0)
 * and upper corner (1, 1, ..., 1).
 */
class QNormalizer
{
public:
    /**
     * @brief Convert from a normalized configuration to a real
     * configuration.
     */
    Q fromNormalized(const Q& q) const;

    /**
     * @brief Convert a real configuration to a normalized configuration.
     */
    Q toNormalized(const Q& q) const;

    /**
     * @brief Convert from a normalized configuration to a real
     * configuration and assign the real configuration to \b q.
     */
    void setFromNormalized(Q& q) const;

    /**
     * @brief Convert a real configuration to a normalized configuration and
     * write the normalized configuration to \b q.
     */
    void setToNormalized(Q& q) const;

    /**
     * @brief The box of the configuration space with respect to which
     * normalization is done.
     */
    const std::pair<Q, Q>& getBounds() const;

    /**
     * @brief Normalizer for the configuration space box given by \b bounds.
     */
    explicit QNormalizer(const std::pair<Q, Q>& bounds);

    /**
     * @brief Normalizer for the already normalized configuration space box.
     */
    static QNormalizer identity();

private:
    QNormalizer();
};
%template (QNormalizerPtr) rw::core::Ptr<QNormalizer>;
OWNEDPTR(QNormalizer)

/**
   @brief Interface for the checking for collisions for work cell states.
*/
class QConstraint
{
public:
	/**
     * @brief Destructor
     */
    virtual ~QConstraint();

	/**
	 * @brief Set the log to be used for writing debug info
	 *
	 * @param log [in] Log to which debug information is to be written
	 */
	virtual void setLog(rw::core::Ptr<Log> log);

	/**
	 * @brief Updates the constraint with a new state
	 * 
	 * The method might not have an effect on all constrainttypes.
	 */
	void update(const State& state);

    /**
     * @brief True if the work cell is considered to be in collision for the
     * device configuration \b q.
     */
    bool inCollision(const Q& q) const;

    /**
     * @brief A fixed constraint.
     *
     * The fixed constraint always returns \b value from inCollision().
     */
	static rw::core::Ptr<QConstraint> makeFixed(bool value);

    /**
     * @brief Constraint for the bounds of the configuration space.
     *
     * The configuration is considered to be in collision if it is outside
     * of the bounds given by \b bounds.
     */
	static rw::core::Ptr<QConstraint> makeBounds(const std::pair<Q, Q>& bounds);

    /**
     * @brief Map a state constraint to a configuration constraint.
     */
	static rw::core::Ptr<QConstraint> make(
		rw::core::Ptr<StateConstraint> detector,
		rw::core::Ptr<const Device> device,
        const State& state);

    /**
     * @brief Map a collision detector to a configuration constraint.
     */
	static rw::core::Ptr<QConstraint> make(
		rw::core::Ptr<CollisionDetector> detector,
		rw::core::Ptr<const Device> device,
        const State& state);

    /**
     * @brief Combine a set of configuration constraints into a single
     * configuration constraint.
     */
	static rw::core::Ptr<QConstraint> makeMerged(
		const std::vector<rw::core::Ptr<QConstraint> >& constraints);

    /**
     * @brief Combine a pair of configuration constraints into a single
     * configuration constraint.
     */
	static rw::core::Ptr<QConstraint> makeMerged(
		const rw::core::Ptr<QConstraint>& ca,
		const rw::core::Ptr<QConstraint>& cb);

    /**
     * @brief Map a configuration constraint for standard configurations
     * into a configuration constraint for normalized configurations.
     *
     * Configuration values are mapped from the range [0, 1] into the
     * corresponding position in the box \b bounds.
     */
	static rw::core::Ptr<QConstraint> makeNormalized(
		const rw::core::Ptr<QConstraint>& constraint,
        const std::pair<Q, Q>& bounds);

    /**
     * @brief Map a configuration constraint for standard configurations
     * into a configuration constraint for normalized configurations.
     *
     * Configuration values are mapped from the range [0, 1] into the
     * corresponding position in the configuration space of \b device.
     */
	static rw::core::Ptr<QConstraint> makeNormalized(
		const rw::core::Ptr<QConstraint>& constraint,
        const Device& device);

    /**
     * @brief Map a configuration constraint for standard configurations
     * into a configuration constraint for normalized configurations.
     *
     * Configuration values are mapped from normalized configurations into
     * standard configurations using \b normalizer.
     */
	static rw::core::Ptr<QConstraint> makeNormalized(
		const rw::core::Ptr<QConstraint>& constraint,
        const QNormalizer& normalizer);

    %extend {
        rw::core::Ptr<const QConstraint> asCPtr() { 
            
            return $self; 
            
        }

    }

protected:
    /**
     * @brief Subclass implementation of the inCollision() method.
     */
    virtual bool doInCollision(const Q& q) const = 0;

    /**
     * @brief Set a log.
     *
     * @param log [in] the log.
     */
	virtual void doSetLog(rw::core::Ptr<rw::common::Log> log) = 0;

	/**
	 * @brief Update constraint.
	 *
	 * @param state [in] the state.
	 */
	virtual void doUpdate(const State& state);

    /**
     * Constructor
     */
    QConstraint() {}

private:
    QConstraint(const QConstraint&);
    QConstraint& operator=(const QConstraint&);
};

%template (QConstraintPtr) rw::core::Ptr<QConstraint>;
%template (QConstraintCPtr) rw::core::Ptr<const QConstraint>;
%template (QConstraintPtrVector) std::vector<rw::core::Ptr<QConstraint> >;

/**
 * @brief Edge constraint interface.
 *
 * An edge constraint represents a path that connects a pair of
 * configurations and checks if this path can be traversed.
 *
 * The edge constraint may assume that the start and end configurations are
 * valid (e.g. not colliding).
 *
 * Each edge has a non-negative cost measuring the degree to which the path
 * connecting the configurations has been verified. You can use the cost
 * measure to for example always verify the edge for which the most of the
 * path still remains to be verified. The exact meaning of the cost is
 * defined by the specific subclass.
 *
 * Given an edge constraint you can construct a new edge constraint of the same
 * type, but for a new pair of configurations, with
 * QEdgeConstraint::instance().
 */
class QEdgeConstraint
{
public:
	//! @brief smart pointer type to this class
	typedef rw::core::Ptr<QEdgeConstraint> Ptr;
	//! @brief smart pointer type to this class
	typedef rw::core::Ptr< const QEdgeConstraint > CPtr;

    /**
     * @brief Destructor
     */
    virtual ~QEdgeConstraint();

    /**
     * @brief True if the path from \b start to \b end can't be traversed.
     *
     * @param start [in] Start configuration.
     * @param end [in] End configuration.
     */
    bool inCollision(const Q& start, const Q& end) const;

    /**
     * @brief Discrete path verification for a linearly interpolated path.
     *
     * Performs a binary style checking of the edge with a resolution of \b resolution.
	 * The length of the edge is virtually extended to exactly match the specified resolution.
	 * However, only configurations within the original length are tested.
	 *
	 * Each configuration tested is checked using \b constraint.
	 *
	 * The metric must be well-behaved, i.e. linear.
	 *
     * Start and end configurations are assumed to be collision free.
     *
	 * @param constraint [in] Constraint to check configurations with
	 * @param metric [in] Metric with which the resolution it to be measured
	 * @param resolution [in] The test resolution
    */
	static rw::core::Ptr<QEdgeConstraint> make(rw::core::Ptr<QConstraint> constraint,
									 rw::core::Ptr<const rw::math::Metric<Q> > metric,
									 double resolution);

    /**
     * @brief Default edge constraint for a configuration constraint and a
     * device.
     *
     * Start and end configurations are connected by a straight line in the
     * configuration space and are checked by a default collision checking
     * resolution.
     */
	static rw::core::Ptr<QEdgeConstraint> makeDefault(rw::core::Ptr<QConstraint> constraint,
		rw::core::Ptr< const Device > device);


	/**
	 * @brief Makes an edge constraint by combining multiple edge constraints
	 *
	 * The constraints provided are called one by one in the order provided.
	 * It is assumed that all constraints matches the same device.
	 *
	 * @param constraints [in] List of constraints to check
	 * @return Pointer to the resulting QEdgeConstraint. Pointer has ownership.
	 **/
	static rw::core::Ptr<QEdgeConstraint> makeMerged(const std::vector<rw::core::Ptr<QEdgeConstraint> >& constraints);

	/**
	 * @brief Makes an edge constraint by combining two edge constraints
	 *
	 * The constraints provided are called one by one in the order provided.
	 * It is assumed that all constraints matches the same device.
	 *
	 * @param constraint1 [in] First constraint to check
	 * @param constraint2 [in] Second constraint to check
	 * @return Pointer to the resulting QEdgeConstraint. Pointer has ownership.
	 **/
	static rw::core::Ptr<QEdgeConstraint> makeMerged(rw::core::Ptr<QEdgeConstraint> constraint1, rw::core::Ptr<QEdgeConstraint> constraint2);


protected:

    /**
     * @brief Subclass implementation of the inCollision() method.
     *
     * By default the method is implemented in terms of instance() and
     * inCollision().
     */
    virtual bool doInCollision(const Q& start,
							   const Q& end) const = 0;



};

%template (QEdgeConstraintPtr) rw::core::Ptr<QEdgeConstraint>;
%template (QEdgeConstraintPtrVector) std::vector<rw::core::Ptr<QEdgeConstraint> >;

/**
 * @brief Edge constraint interface for incremental testing of an edge
 *
 * An edge constraint represents a path that connects a pair of
 * configurations and checks if this path can be traversed.
 *
 * The edge constraint may assume that the start and end configurations are
 * valid (e.g. not colliding).
 *
 * Each edge has a non-negative cost measuring the degree to which the path
 * connecting the configurations has been verified. You can use the cost
 * measure to for example always verify the edge for which the most of the
 * path still remains to be verified. The exact meaning of the cost is
 * defined by the specific subclass.
 *
 * Given an edge planner you can construct a new edge planner of the same
 * type, but for a new pair of configurations, with
 * QEdgeConstraint::instance().
 */
class QEdgeConstraintIncremental
{
public:
    /**
     * @brief Destructor
     */
    virtual ~QEdgeConstraintIncremental();

    /**
     * @brief True if the path from \b start to \b end can't be traversed.
     *
     * @param start [in] Start configuration.
     * @param end [in] End configuration.
     */
    bool inCollision(
        const Q& start,
        const Q& end) const;

    /**
     * @brief True if the path connecting the start and end configuration
     * can't be traversed.
     */
    bool inCollision();

    /**
     * @brief Non-negative measure of the amount of the path that still
     * remains to be verified.
     *
     * The exact definition of the cost is decided by the subclass.
     *
     * The cost of an edge should strictly decrease for every call of
     * verifyIncrement().
     *
     * The cost of a fully verified edge can be 0, but does not have to be.
     */
    double inCollisionCost() const;

    /**
     * @brief Perform a partial check of the path and return true if a
     * collision was found.
     *
     * Full check of the path can be implemented in terms of a sequence of
     * partial checks. The isFullyChecked() method returns true when there
     * are no more partial checks to be done.
     */
    bool inCollisionPartialCheck();

    /**
     * @brief True if the path has been fully checked.
     *
     * To check a path, either call inCollision() or repeatedly call
     * inCollisionPartialCheck() until inCollisionPartialCheck() returns
     * false or isFullyChecked() returns true.
     */
    bool isFullyChecked() const;

    /**
     * @brief An edge constraint for a pair of configurations.
     *
     * @param start [in] Start configuration of path
     * @param end [in] End configuration of path
     */
	rw::core::Ptr<QEdgeConstraintIncremental> instance(
        const Q& start,
        const Q& end) const;

    /**
     * @brief The start configuration of the path.
     */
    const Q& getStart() const;

    /**
     * @brief The end configuration of the path.
     */
    const Q& getEnd() const;

    /**
     * @brief Reset the object to use a different pair of start and end
     * configurations.
     */
    void reset(const Q& start, const Q& end);

    // Here we have the factory methods.

    /**
     * @brief Discrete path verification for a linearly interpolated path.
     *
     * Linearly interpolate from \b start to \b end configuration until the
     * distance between pairs of configurations is \b resolution when
     * measured by \b metric. Verify each configuration by \b constraint.
     *
     * The cost is defined as the distance (measured by \b metric) between
     * pairs of configurations currently verified by \b constraint.
     *
     * The metric must be well-behaved, i.e. linear.
     *
     * You can pass empty configurations as \b start and \b end to construct
     * an initial edge planner that you can instance() with better
     * configurations later.
     *
     * Start and end configurations for this initial planner are set to the
     * empty configuration.
     */
	static rw::core::Ptr<QEdgeConstraintIncremental> make(
		rw::core::Ptr<QConstraint> constraint,
		rw::core::Ptr< rw::math::Metric<Q> > metric,
        double resolution = 1);

    /**
     * @brief Default edge constraint for a configuration constraint and a
     * device.
     *
     * Start and end configurations are connected by a straight line in the
     * configuration space and are checked by a default collision checking
     * resolution.
     */
	static rw::core::Ptr<QEdgeConstraintIncremental> makeDefault(
		rw::core::Ptr<QConstraint> constraint,
		rw::core::Ptr<Device> device);

    /**
     * @brief A fixed edge constraint.
     *
     * The fixed edge constraint always returns \b value from inCollision().
     */
    static
		rw::core::Ptr<QEdgeConstraintIncremental> makeFixed(bool value);

    // We can implement a bunch of other instances, for example an instance
    // parameterized by an interpolator.

protected:
    /**
     * @brief Constructor provided for subclasses.
     *
     * @param start [in] Start configuration of path
     * @param end [in] End configuration of path
     */
    QEdgeConstraintIncremental(
        const Q& start,
        const Q& end);

    /**
     * @brief Subclass implementation of the inCollision() method.
     *
     * By default the method is implemented in terms of instance() and
     * inCollision().
     */
    virtual bool doInCollision(
        const Q& start,
        const Q& end) const;

    /**
     * @brief Subclass implementation of the inCollision() method.
     *
     * By default this method is implemented in terms of
     * inCollisionPartialCheck() and isFullyChecked().
     */
    virtual bool doInCollision();

    /**
     * @brief Subclass implementation of the inCollisionCost() method.
     */
    virtual double doInCollisionCost() const = 0;

    /**
     * @brief Subclass implementation of the inCollisionPartialCheck() method.
     *
     * By default this method is implemented in terms of inCollision().
     */
    virtual bool doInCollisionPartialCheck();

    /**
     * @brief Subclass implementation of the isFullyChecked() method.
     */
    virtual bool doIsFullyChecked() const = 0;

    /**
     * @brief Subclass implementation of the instance() method.
     */
	virtual rw::core::Ptr<QEdgeConstraintIncremental> doClone(
        const Q& start,
        const Q& end) const = 0;

    /**
     * @brief Subclass implementation of the reset() method.
     *
     * The start and end configurations will be reset before doReset() is
     * called, and therefore the start and end configurations are not passed
     * to doReset().
     */
    virtual void doReset() = 0;
};

%template (QEdgeConstraintIncrementalPtr) rw::core::Ptr<QEdgeConstraintIncremental>;

/**
 * @brief Interface for the sampling a configuration that solves an IK
 * problem.
 */
class QIKSampler
{
public:
    /**
     * @brief Sample a configuration that solves an IK problem for \b
     * target.
     *
     * If sampling fails, the sampler may return the empty configuration. If
     * empty() is true then the sampler has no more configurations.
     * Otherwise sample() may (or may not) succeed if called a second time.
     */
    Q sample(const rw::math::Transform3D<double>& target);

    /**
     * @brief True if the sampler is known to contain no more
     * configurations.
     */
    bool empty() const;

    /**
     * @brief Destructor
     */
    virtual ~QIKSampler();

    /**
     * @brief An IK sampler based on an iterative IK solver.
     *
     * All solutions returned are checked to be within the bounds of the device.
     *
     * @param device [in] The device for which seeds are sampled.
     *
     * @param state [in] Fixed state with respect to which IK is solved.
     *
     * @param solver [in] Optional IK solver for \b device and \b state.
     *
     * @param seed [in] Optional sampler of seeds to feed the IK solver.
     *
     * @param maxAttempts [in] Optional number of seeds to feed the IK
     * solver. If \b maxAttempts is negative, a default value for \b
     * maxAttempts is chosen.
     */
	static rw::core::Ptr<QIKSampler> make(
		rw::core::Ptr<Device> device,
        const State& state,
		rw::core::Ptr<IterativeIK> solver = NULL,
		rw::core::Ptr<QSampler> seed = NULL,
        int maxAttempts = -1);

    /**
     * @brief An IK sampler filtered by a constraint.
     *
     * For each call of sample() up to \b maxAttempts configurations are
     * extracted from \b sampler and checked by \b constraint. The first
     * sample that satisfies the constraint is returned; if no such were
     * found the empty configuration is returned.
     *
     * If \b maxAttempts is negative, then \b sampler is sampled forever
     * until either the \b sampler is empty or a configuration satisfying \b
     * constraint is found.
     */
    static rw::core::Ptr<QIKSampler> makeConstrained(
	    rw::core::Ptr<QIKSampler> sampler,
		rw::core::Ptr<QConstraint> constraint,
        int maxAttempts = -1);

protected:
    /**
     * @brief Constructor
     */
    QIKSampler();

    /**
     * @brief Subclass implementation of the sample() method.
     */
    virtual Q doSample(
        const rw::math::Transform3D<double>& target) = 0;

    /**
     * @brief Subclass implementation of the empty() method.
     *
     * By default the sampler is assumed to be sampling an infinite set of
     * configurations. IOW. the function returns false by default.
     */
    virtual bool doEmpty() const;
};

%template (QIKSamplerPtr) rw::core::Ptr<QIKSampler>;
%template (QIKSamplerCPtr) rw::core::Ptr<const QIKSampler>;

%nodefaultctor QToQPlanner;
class QToQPlanner: public PathPlanner<Q, const Q> {
public:

    /**
         @brief Construct a path planner from a region planner.

        The region planner is given as goal region the single \b to
        configuration passed to the query() method.

        @param planner [in] A planner for a region given by a QSampler.
    */
    static rw::core::Ptr<QToQPlanner> make(rw::core::Ptr<QToQSamplerPlanner> planner);

    /**
         @brief Construct a path planner from an edge constraint.

        The path planners calls the edge constraint to verify if the path
        going directly from the start to goal configuration can be traversed.

        The configuration constraint is called to verify that neither the
        start nor end configuration is in collision.

        @param constraint [in] Planner constraint.
        @return A planner that attempts the directly connecting edge only.
    */
    static rw::core::Ptr<QToQPlanner> make(const PlannerConstraint& constraint);

    %extend {
/*
        rw::core::Ptr<rw::trajectory::Path<Q> > query(Q from, Q to, rw::core::Ptr<StopCriteria> stop){
            rw::core::Ptr<rw::trajectory::Path<Q> > path = rw::core::ownedPtr(new PathQ());
            $self->rw::pathplanning::PathPlanner<Q,const Q>::query(from,to,*path,*stop);
            return path;
        }

        rw::core::Ptr<rw::trajectory::Path<Q> > query(Q from, Q to, double time){
            rw::core::Ptr<rw::trajectory::Path<Q> > path = rw::core::ownedPtr(new PathQ());
            $self->rw::pathplanning::PathPlanner<Q,const Q>::query(from,to,*path,time);
            return path;
        }

        rw::core::Ptr<rw::trajectory::Path<Q> > query(Q from, Q to){
            rw::core::Ptr<rw::trajectory::Path<Q> > path = rw::core::ownedPtr(new PathQ());
            $self->rw::pathplanning::PathPlanner<Q,const Q>::query(from,to,*path);
            return path;
        }

        PropertyMap& getProperties(){
            return $self->rw::pathplanning::PathPlanner<Q,const Q>::getProperties();
        }
        static rw::core::Ptr<QToQPlanner> makeRRT(rw::core::Ptr<CollisionDetector> cdect, rw::core::Ptr<Device> dev, const State& state){
            const rw::pathplanning::PlannerConstraint constraint = rw::pathplanning::PlannerConstraint::make(
                cdect.get(), dev, state);
            return rwlibs::pathplanners::RRTPlanner::makeQToQPlanner(constraint, dev);
        }

        static rw::core::Ptr<QToQPlanner> makeSBL(rw::core::Ptr<CollisionDetector> cdect, rw::core::Ptr<Device> dev, const State& state){
            rw::pathplanning::QConstraint::Ptr qconstraint = rw::pathplanning::QConstraint::make(cdect.get(), dev, state);
            return rwlibs::pathplanners::SBLPlanner::makeQToQPlanner(rwlibs::pathplanners::SBLSetup::make(qconstraint, rw::pathplanning::QEdgeConstraintIncremental::makeDefault(qconstraint, dev), dev));
        }
*/
    };
};

%template (QToQPlannerPtr) rw::core::Ptr<QToQPlanner>;

%nodefaultctor QToTPlanner;
class QToTPlanner 
{
public:
	//! @brief smart pointer type to this class
	typedef rw::core::Ptr<QToTPlanner> Ptr;

    %extend {

        rw::core::Ptr<rw::trajectory::Path<Q> > query(Q from, rw::math::Transform3D<double> to, rw::core::Ptr<StopCriteria> stop){
            rw::core::Ptr<rw::trajectory::Path<Q> > path = rw::core::ownedPtr(new rw::trajectory::Path<Q>());
            $self->rw::pathplanning::PathPlanner<Q,const rw::math::Transform3D<double> >::query(from,to,*path,*stop);
            return path;
        }

        rw::core::Ptr<rw::trajectory::Path<Q> > query(Q from, rw::math::Transform3D<double> to, double time){
            rw::core::Ptr<rw::trajectory::Path<Q> > path = rw::core::ownedPtr(new rw::trajectory::Path<Q>());
            $self->rw::pathplanning::PathPlanner<Q,const rw::math::Transform3D<double> >::query(from,to,*path,time);
            return path;
        }

        rw::core::Ptr<rw::trajectory::Path<Q> > query(Q from, rw::math::Transform3D<double> to){
            rw::core::Ptr<rw::trajectory::Path<Q> > path = rw::core::ownedPtr(new rw::trajectory::Path<Q>());
            $self->rw::pathplanning::PathPlanner<Q,const rw::math::Transform3D<double> >::query(from,to,*path);
            return path;
        }

        PropertyMap& getProperties(){
            return $self->rw::pathplanning::PathPlanner<Q,const rw::math::Transform3D<double> >::getProperties();
        }
	}	
};

%template (QToTPlannerPtr) rw::core::Ptr<QToTPlanner>;

%nodefaultctor QToQSamplerPlanner;
/**
   @brief Sampled region planner interface.

   QToQSamplerPlanner plans a configuration space path from a start
   configuration to any configuration in the set represented by a sampler.
*/
class QToQSamplerPlanner : public PathPlanner<Q, QSampler>
{
};

%template (QToQSamplerPlannerPtr) rw::core::Ptr<QToQSamplerPlanner>;

/**
   @brief Interface for the checking for collisions for work cell states.
*/
class StateConstraint
{
public:
	/**
	 * @brief Set the log to be used for writing debug info
	 *
	 * @param log [in] Log to which debug information is to be written
	 */
	virtual void setLog(rw::core::Ptr<Log> log);

    /**
     * @brief True if the work cell is considered to be in collision for the
     * work cell state \b state.
     */
    bool inCollision(const State& state) const;

    /**
     * Destructor
     */
    virtual ~StateConstraint();

    // Factory functions follow below.

    /**
     * @brief Map a collision detector to a state constraint.
     */
	static rw::core::Ptr<StateConstraint> make(
		rw::core::Ptr<CollisionDetector> detector);

    /**
     * @brief Combine a set of state constraints into a single state
     * constraint.
     */
	static rw::core::Ptr<StateConstraint> make(
		const std::vector<rw::core::Ptr<StateConstraint> >& constraints);

protected:
    /**
     * @brief Subclass implementation of the inCollision() method.
     */
    virtual bool doInCollision(const State& state) const = 0;

    /**
     * @brief Set a log.
     *
     * @param log [in] the log.
     */
	virtual void doSetLog(rw::core::Ptr<Log> log) = 0;

    /**
     * @brief Constructor
     */
    StateConstraint();
};

%template (StateConstraintPtr) rw::core::Ptr<StateConstraint>;
%template (StateConstraintCPtr) rw::core::Ptr<const StateConstraint>;
%template (StateConstraintPtrVector) std::vector<rw::core::Ptr<StateConstraint> >;
